[gd_resource type="StyleBoxFlat" format=2]

[resource]
bg_color = Color( 0.694118, 0.611765, 0.85098, 1 )
border_width_left = 2
border_width_top = 2
border_width_right = 2
border_width_bottom = 2
border_color = Color( 0, 0, 0, 1 )
corner_radius_top_left = 45
corner_radius_top_right = 45
corner_radius_bottom_right = 45
corner_radius_bottom_left = 45
shadow_size = 2
